<svg width="24" height="22" viewBox="0 0 24 22" fill="none" xmlns="http://www.w3.org/2000/svg">
<path d="M12 0L15.6678 6.95173L23.4127 8.2918L17.9346 13.9283L19.0534 21.7082L12 18.24L4.94658 21.7082L6.06541 13.9283L0.587322 8.2918L8.33222 6.95173L12 0Z" fill="#FFC700"/>
</svg>
